\relax 
\providecommand\hyper@newdestlabel[2]{}
\providecommand\HyperFirstAtBeginDocument{\AtBeginDocument}
\HyperFirstAtBeginDocument{\ifx\hyper@anchor\@undefined
\global\let\oldcontentsline\contentsline
\gdef\contentsline#1#2#3#4{\oldcontentsline{#1}{#2}{#3}}
\global\let\oldnewlabel\newlabel
\gdef\newlabel#1#2{\newlabelxx{#1}#2}
\gdef\newlabelxx#1#2#3#4#5#6{\oldnewlabel{#1}{{#2}{#3}}}
\AtEndDocument{\ifx\hyper@anchor\@undefined
\let\contentsline\oldcontentsline
\let\newlabel\oldnewlabel
\fi}
\fi}
\global\let\hyper@last\relax 
\gdef\HyperFirstAtBeginDocument#1{#1}
\providecommand\HyField@AuxAddToFields[1]{}
\providecommand\HyField@AuxAddToCoFields[2]{}
\@writefile{toc}{\beamer@endinputifotherversion {3.24pt}}
\@writefile{nav}{\beamer@endinputifotherversion {3.24pt}}
\@writefile{nav}{\headcommand {\slideentry {0}{0}{1}{1/1}{}{0}}}
\@writefile{nav}{\headcommand {\beamer@framepages {1}{1}}}
\@writefile{toc}{\beamer@sectionintoc {1}{Motivation}{2}{0}{1}}
\@writefile{nav}{\headcommand {\sectionentry {1}{Motivation}{2}{Motivation}{0}}}
\@writefile{nav}{\headcommand {\beamer@sectionpages {1}{1}}}
\@writefile{nav}{\headcommand {\beamer@subsectionpages {1}{1}}}
\@writefile{nav}{\headcommand {\slideentry {1}{0}{2}{2/2}{}{0}}}
\@writefile{nav}{\headcommand {\beamer@framepages {2}{2}}}
\@writefile{nav}{\headcommand {\slideentry {1}{0}{3}{3/3}{}{0}}}
\@writefile{nav}{\headcommand {\beamer@framepages {3}{3}}}
\@writefile{nav}{\headcommand {\slideentry {1}{0}{4}{4/4}{}{0}}}
\@writefile{nav}{\headcommand {\beamer@framepages {4}{4}}}
\@writefile{toc}{\beamer@sectionintoc {2}{Model}{5}{0}{2}}
\@writefile{nav}{\headcommand {\sectionentry {2}{Model}{5}{Model}{0}}}
\@writefile{nav}{\headcommand {\beamer@sectionpages {2}{4}}}
\@writefile{nav}{\headcommand {\beamer@subsectionpages {2}{4}}}
\@writefile{nav}{\headcommand {\slideentry {2}{0}{5}{5/5}{}{0}}}
\@writefile{nav}{\headcommand {\beamer@framepages {5}{5}}}
\@writefile{nav}{\headcommand {\slideentry {2}{0}{6}{6/6}{}{0}}}
\@writefile{nav}{\headcommand {\beamer@framepages {6}{6}}}
\@writefile{toc}{\beamer@sectionintoc {3}{Space-time discretization}{7}{0}{3}}
\@writefile{nav}{\headcommand {\sectionentry {3}{Space-time discretization}{7}{Space-time discretization}{0}}}
\@writefile{nav}{\headcommand {\beamer@sectionpages {5}{6}}}
\@writefile{nav}{\headcommand {\beamer@subsectionpages {5}{6}}}
\@writefile{nav}{\headcommand {\slideentry {3}{0}{7}{7/7}{}{0}}}
\@writefile{nav}{\headcommand {\beamer@framepages {7}{7}}}
\@writefile{nav}{\headcommand {\slideentry {3}{0}{8}{8/10}{}{0}}}
\@writefile{nav}{\headcommand {\beamer@framepages {8}{10}}}
\@writefile{toc}{\beamer@subsectionintoc {3}{1}{L-scheme + Discontinuous Galerkin FE in time}{11}{0}{3}}
\@writefile{nav}{\headcommand {\beamer@subsectionentry {0}{3}{1}{11}{L-scheme + Discontinuous Galerkin FE in time}}\headcommand {\beamer@subsectionpages {7}{10}}}
\@writefile{nav}{\headcommand {\slideentry {3}{1}{1}{11/11}{L-scheme + Discontinuous Galerkin FE in time}{0}}}
\@writefile{nav}{\headcommand {\beamer@framepages {11}{11}}}
\@writefile{nav}{\headcommand {\slideentry {3}{1}{2}{12/12}{L-scheme + Discontinuous Galerkin FE in time}{0}}}
\@writefile{nav}{\headcommand {\beamer@framepages {12}{12}}}
\@writefile{nav}{\headcommand {\slideentry {3}{1}{3}{13/14}{L-scheme + Discontinuous Galerkin FE in time}{0}}}
\@writefile{nav}{\headcommand {\beamer@framepages {13}{14}}}
\@writefile{nav}{\headcommand {\slideentry {3}{1}{4}{15/15}{L-scheme + Discontinuous Galerkin FE in time}{0}}}
\@writefile{nav}{\headcommand {\beamer@framepages {15}{15}}}
\@writefile{nav}{\headcommand {\slideentry {3}{1}{5}{16/18}{L-scheme + Discontinuous Galerkin FE in time}{0}}}
\@writefile{nav}{\headcommand {\beamer@framepages {16}{18}}}
\@writefile{nav}{\headcommand {\slideentry {3}{1}{6}{19/19}{L-scheme + Discontinuous Galerkin FE in time}{0}}}
\@writefile{nav}{\headcommand {\beamer@framepages {19}{19}}}
\@writefile{toc}{\beamer@subsectionintoc {3}{2}{Newtons method + Discontinuous Galerkin FE in time}{20}{0}{3}}
\@writefile{nav}{\headcommand {\beamer@subsectionentry {0}{3}{2}{20}{Newtons method + Discontinuous Galerkin FE in time}}\headcommand {\beamer@subsectionpages {11}{19}}}
\@writefile{nav}{\headcommand {\slideentry {3}{2}{1}{20/20}{Newtons method + Discontinuous Galerkin FE in time}{0}}}
\@writefile{nav}{\headcommand {\beamer@framepages {20}{20}}}
\@writefile{nav}{\headcommand {\slideentry {3}{2}{2}{21/21}{Newtons method + Discontinuous Galerkin FE in time}{0}}}
\@writefile{nav}{\headcommand {\beamer@framepages {21}{21}}}
\@writefile{toc}{\beamer@sectionintoc {4}{Numerical methods}{22}{0}{4}}
\@writefile{nav}{\headcommand {\sectionentry {4}{Numerical methods}{22}{Numerical methods}{0}}}
\@writefile{nav}{\headcommand {\beamer@sectionpages {7}{21}}}
\@writefile{nav}{\headcommand {\beamer@subsectionpages {20}{21}}}
\@writefile{nav}{\headcommand {\slideentry {4}{0}{3}{22/22}{}{0}}}
\@writefile{nav}{\headcommand {\beamer@framepages {22}{22}}}
\@writefile{nav}{\headcommand {\slideentry {4}{0}{4}{23/23}{}{0}}}
\@writefile{nav}{\headcommand {\beamer@framepages {23}{23}}}
\providecommand*\caption@xref[2]{\@setref\relax\@undefined{#1}}
\newlabel{figura1}{{4}{24}{Performance of L-scheme for different values of $L_1$ and $L_2$ for test problem 1, $\bb (p)=e^p;\ $ $\cc (\divv \uu )=\sqrt [3]{(\divv \uu ) ^5}+\divv \uu $, dG(0) to the left and dG(1) to the right.\relax }{Doc-Start}{}}
\@writefile{snm}{\beamer@slide {figura1}{24}}
\newlabel{figura2}{{5}{24}{Performance of L-scheme for different mesh size $h$, time step $\tau $ and order of the elements at the last time step.\relax }{Doc-Start}{}}
\@writefile{snm}{\beamer@slide {figura2}{24}}
\@writefile{nav}{\headcommand {\slideentry {4}{0}{5}{24/24}{}{0}}}
\@writefile{nav}{\headcommand {\beamer@framepages {24}{24}}}
\newlabel{Nonlinearfuntions}{{1}{25}{Non linear functions $\bb (\cdot ), \cc (\cdot )$ for the test problem \relax }{Doc-Start}{}}
\@writefile{snm}{\beamer@slide {Nonlinearfuntions}{25}}
\newlabel{performances}{{\caption@xref {performances}{ on input line 818}}{25}{Numerical methods}{Doc-Start}{}}
\@writefile{snm}{\beamer@slide {performances}{25}}
\@writefile{nav}{\headcommand {\slideentry {4}{0}{6}{25/25}{}{0}}}
\@writefile{nav}{\headcommand {\beamer@framepages {25}{25}}}
\newlabel{Nonlinearfuntions}{{2}{26}{Non linear functions $\bb (\cdot ), \cc (\cdot )$ for the test problem \relax }{Doc-Start}{}}
\@writefile{snm}{\beamer@slide {Nonlinearfuntions}{26}}
\newlabel{time_step}{{\caption@xref {time_step}{ on input line 850}}{26}{Numerical methods}{Doc-Start}{}}
\@writefile{snm}{\beamer@slide {time_step}{26}}
\@writefile{nav}{\headcommand {\slideentry {4}{0}{7}{26/26}{}{0}}}
\@writefile{nav}{\headcommand {\beamer@framepages {26}{26}}}
\@writefile{nav}{\headcommand {\slideentry {4}{0}{8}{27/27}{}{0}}}
\@writefile{nav}{\headcommand {\beamer@framepages {27}{27}}}
\@writefile{nav}{\headcommand {\slideentry {4}{0}{9}{28/28}{}{0}}}
\@writefile{nav}{\headcommand {\beamer@framepages {28}{28}}}
\@writefile{toc}{\beamer@sectionintoc {5}{Remarks and conclusions}{29}{0}{5}}
\@writefile{nav}{\headcommand {\sectionentry {5}{Remarks and conclusions}{29}{Remarks and conclusions}{0}}}
\@writefile{nav}{\headcommand {\beamer@sectionpages {22}{28}}}
\@writefile{nav}{\headcommand {\beamer@subsectionpages {22}{28}}}
\@writefile{nav}{\headcommand {\slideentry {5}{0}{10}{29/29}{}{0}}}
\@writefile{nav}{\headcommand {\beamer@framepages {29}{29}}}
\@writefile{nav}{\headcommand {\slideentry {5}{0}{11}{30/30}{}{0}}}
\@writefile{nav}{\headcommand {\beamer@framepages {30}{30}}}
\@writefile{nav}{\headcommand {\slideentry {5}{0}{12}{31/31}{}{0}}}
\@writefile{nav}{\headcommand {\beamer@framepages {31}{31}}}
\@writefile{nav}{\headcommand {\slideentry {5}{0}{13}{32/32}{}{0}}}
\@writefile{nav}{\headcommand {\beamer@framepages {32}{32}}}
\@writefile{nav}{\headcommand {\slideentry {5}{0}{14}{33/33}{}{0}}}
\@writefile{nav}{\headcommand {\beamer@framepages {33}{33}}}
\newlabel{Equilibrium_equation}{{1}{34}{Remarks and conclusions}{Doc-Start}{}}
\@writefile{snm}{\beamer@slide {Equilibrium_equation}{34}}
\@writefile{nav}{\headcommand {\slideentry {5}{0}{15}{34/34}{}{0}}}
\@writefile{nav}{\headcommand {\beamer@framepages {34}{34}}}
\@writefile{nav}{\headcommand {\slideentry {5}{0}{16}{35/35}{}{0}}}
\@writefile{nav}{\headcommand {\beamer@framepages {35}{35}}}
\newlabel{L_scheme}{{\caption@xref {L_scheme}{ on input line 1215}}{36}{Remarks and conclusions}{Doc-Start}{}}
\@writefile{snm}{\beamer@slide {L_scheme}{36}}
\newlabel{L_scheme}{{\caption@xref {L_scheme}{ on input line 1215}}{36}{Remarks and conclusions}{Doc-Start}{}}
\@writefile{snm}{\beamer@slide {L_scheme}{36}}
\@writefile{nav}{\headcommand {\slideentry {5}{0}{17}{36/36}{}{0}}}
\@writefile{nav}{\headcommand {\beamer@framepages {36}{36}}}
\@writefile{nav}{\headcommand {\slideentry {5}{0}{18}{37/39}{}{0}}}
\@writefile{nav}{\headcommand {\beamer@framepages {37}{39}}}
\@writefile{nav}{\headcommand {\slideentry {5}{0}{19}{40/40}{}{0}}}
\@writefile{nav}{\headcommand {\beamer@framepages {40}{40}}}
\@writefile{nav}{\headcommand {\slideentry {5}{0}{20}{41/41}{}{0}}}
\@writefile{nav}{\headcommand {\beamer@framepages {41}{41}}}
\@writefile{nav}{\headcommand {\slideentry {5}{0}{21}{42/44}{}{0}}}
\@writefile{nav}{\headcommand {\beamer@framepages {42}{44}}}
\@writefile{nav}{\headcommand {\beamer@partpages {1}{44}}}
\@writefile{nav}{\headcommand {\beamer@subsectionpages {29}{44}}}
\@writefile{nav}{\headcommand {\beamer@sectionpages {29}{44}}}
\@writefile{nav}{\headcommand {\beamer@documentpages {44}}}
\@writefile{nav}{\headcommand {\def \inserttotalframenumber {29}}}
